{
    "KPlugin": {
        "Authors": [
            {
                "Email": "trueg@k3b.org",
                "Name": "Sebastian Trueg",
                "Name[bg]": "Sebastian Trueg",
                "Name[ca@valencia]": "Sebastian Trueg",
                "Name[ca]": "Sebastian Trueg",
                "Name[cs]": "Sebastian Trueg",
                "Name[da]": "Sebastian Trueg",
                "Name[de]": "Sebastian Trueg",
                "Name[el]": "Sebastian Trueg",
                "Name[en_GB]": "Sebastian Trueg",
                "Name[es]": "Sebastian Trueg",
                "Name[eu]": "Sebastian Trueg",
                "Name[fi]": "Sebastian Trueg",
                "Name[fr]": "Sebastian Trueg",
                "Name[hu]": "Sebastian Trueg",
                "Name[ia]": "Sebastian Trueg",
                "Name[it]": "Sebastian Trueg",
                "Name[ko]": "Sebastian Trueg",
                "Name[nl]": "Sebastian Trueg",
                "Name[pl]": "Sebastian Trueg",
                "Name[pt]": "Sebastian Trueg",
                "Name[pt_BR]": "Sebastian Trueg",
                "Name[ru]": "Sebastian Trueg",
                "Name[sk]": "Sebastian Trueg",
                "Name[sl]": "Sebastian Trueg",
                "Name[sv]": "Sebastian Trueg",
                "Name[tr]": "Sebastian Trueg",
                "Name[uk]": "Sebastian Trueg",
                "Name[x-test]": "xxSebastian Truegxx",
                "Name[zh_CN]": "Sebastian Trueg"
            }
        ],
        "Category": "AudioEncoder",
        "Description": "Encoding module to encode Ogg Vorbis files",
        "Description[bg]": "Кодиращ модул за Ogg Vorbis файлове",
        "Description[bs]": "Modul za kodiranje OGG vorbis datoteka",
        "Description[ca@valencia]": "Mòdul de codificació per a codificar fitxers Ogg Vorbis",
        "Description[ca]": "Mòdul de codificació per a codificar fitxers Ogg Vorbis",
        "Description[cs]": "Modul pro kompresi do souborů Ogg Vorbis",
        "Description[csb]": "Mòdul kòdërëjący lopczi Ogg Vorbis",
        "Description[da]": "Indkodnignsmodul til Ogg Vorbis-filer",
        "Description[de]": "Kodierungsmodul zur Kodierung von Ogg Vorbis-Dateien",
        "Description[el]": "Άρθρωμα κωδικοποίησης αρχείων Ogg Vorbis",
        "Description[en_GB]": "Encoding module to encode Ogg Vorbis files",
        "Description[es]": "Módulo de codificado para codificar archivos Ogg Vorbis",
        "Description[et]": "Ogg Vorbise failide kodeerimise moodul",
        "Description[eu]": "Ogg Vorbis fitxategiak kodetzeko modulua",
        "Description[fi]": "Ogg Vorbis -tiedostojen pakkausmoduuli",
        "Description[fr]": "Module de décodage pour des fichiers audio au format « Ogg Vorbis »",
        "Description[ga]": "Modúl ionchódaithe a ionchódaíonn comhaid Ogg Vorbis",
        "Description[gl]": "Módulo de codificación para ficheiros Ogg Vorbis",
        "Description[he]": "מודול קידוד על מנת לקודד קבצי Ogg Vorbis",
        "Description[hne]": "ओग वार्बिस फाइल ल एनकोड करे बर एनकोडिंग माड्यूल",
        "Description[hr]": "Koderski modul za kodiranje Ogg Vorbis datoteka",
        "Description[hu]": "Kódolómodul Ogg Vorbis-fájlok készítéséhez",
        "Description[ia]": "Modulo decifrante per decifrar files Ogg Vorbis",
        "Description[id]": "Modul encoding untuk mengenkode file-file Ogg Vorbis",
        "Description[it]": "Codifica modulare di file Ogg Vorbis",
        "Description[ja]": "Ogg Vorbis ファイルをエンコードするモジュール",
        "Description[kk]": "Ogg Vorbis файлдарының кодер модулі",
        "Description[km]": "ម៉ូឌុល​អ៊ិនកូដ សម្រាប់​​អ៊ិនកូដ​ឯកសារ Ogg Vorbis",
        "Description[ko]": "Ogg 보비스 파일 인코딩 모듈",
        "Description[lt]": "Kodavimo modulis koduoti Ogg Vorbis failus",
        "Description[lv]": "Kodēšanas modulis Ogg Vorbis failiem",
        "Description[mr]": "Ogg Vorbis फाईल्स एन्कोड करण्याकरिता एन्कोडिंग विभाग",
        "Description[nb]": "Modul som koder Ogg Vorbis-filer",
        "Description[nds]": "Kodeermoduul för Dateien in't Formaat \"MPEG 1 Laag III\"",
        "Description[nl]": "Module voor het coderen van Ogg Vorbis-bestanden",
        "Description[nn]": "Modul for koding av Ogg Vorbis-filer",
        "Description[pl]": "Moduł kodujący pliki Ogg Vorbis",
        "Description[pt]": "Módulo de codificação de ficheiros Ogg Vorbis",
        "Description[pt_BR]": "Módulo de codificação de arquivos Ogg Vorbis",
        "Description[ro]": "Modul de codare pentru codarea fișierelor Ogg Vorbis",
        "Description[ru]": "Модуль перекодировки файлов Ogg Vorbis files",
        "Description[sk]": "Modul pre kódovanie súborov Ogg Vorbis",
        "Description[sl]": "Kodirni modul za kodiranje datotek Ogg Vorbis",
        "Description[sr@ijekavian]": "Модул за кодирање ОГГ ворбис фајлова",
        "Description[sr@ijekavianlatin]": "Modul za kodiranje OGG Vorbis fajlova",
        "Description[sr@latin]": "Modul za kodiranje OGG Vorbis fajlova",
        "Description[sr]": "Модул за кодирање ОГГ ворбис фајлова",
        "Description[sv]": "Kodningsmodul för att koda Ogg Vorbis-filer",
        "Description[th]": "มอดูลเข้ารหัสแฟ้มประเภท Ogg Vorbis",
        "Description[tr]": "Ogg Vorbis dosyalarını şifrelemek için şifreleme  modülü",
        "Description[uk]": "Модуль кодування файлів Ogg Vorbis",
        "Description[x-test]": "xxEncoding module to encode Ogg Vorbis filesxx",
        "Description[zh_CN]": "用于编码 Ogg Vorbis 文件的编码模块",
        "Description[zh_TW]": "編碼 Ogg Vorbis 檔案格式的模組",
        "EnabledByDefault": true,
        "Icon": "preferences-plugin",
        "Id": "k3boggvorbisencoder",
        "License": "GPL",
        "Name": "K3b Ogg Vorbis Encoder",
        "Name[bg]": "Кодиране на Ogg Vorbis (K3b)",
        "Name[bs]": "OGG Vorbis koder za K3b",
        "Name[ca@valencia]": "Codificador Ogg Vorbis de K3b",
        "Name[ca]": "Codificador Ogg Vorbis del K3b",
        "Name[cs]": "K3b Ogg Vorbis enkodér",
        "Name[csb]": "Kòder Ogg Vorbis dlô K3b",
        "Name[da]": "K3b Ogg Vorbis-indkodning",
        "Name[de]": "Ogg-Vorbis-Kodierer",
        "Name[el]": "Κωδικοποιητής Ogg Vorbis του K3b",
        "Name[en_GB]": "K3b Ogg Vorbis Encoder",
        "Name[es]": "Codificador Ogg Vorbis de K3b",
        "Name[et]": "K3b Ogg Vorbise kodeerija",
        "Name[eu]": "K3b Ogg Vorbis kodetzailea",
        "Name[fi]": "K3b:n Ogg Vorbis-pakkaaja",
        "Name[fr]": "Encodeur « Ogg Vorbis » pour K3b",
        "Name[ga]": "Ionchódóir Ogg Vorbis K3b",
        "Name[gl]": "Codificador de Ogg Vorbis para K3b",
        "Name[he]": "מקודד Ogg Vorbis של K3b",
        "Name[hne]": "के3बी ओग वार्बिस एनकोडर",
        "Name[hr]": "K3b-ov koder Ogg Vorbisa",
        "Name[hu]": "Ogg Vorbis-kódoló a K3b-hez",
        "Name[ia]": "Decodificator Ogg Vorbis de K3b",
        "Name[id]": "Enkoder Ogg Vorbis K3b",
        "Name[is]": "K3b Ogg Vorbis kóðari",
        "Name[it]": "Codificatore Ogg Vorbis di K3b",
        "Name[ja]": "K3b Ogg Vorbis エンコーダ",
        "Name[kk]": "K3b Ogg Vorbis кодері",
        "Name[km]": "អ៊ិនកូឌ័រ​ Ogg Vorbis របស់ K3b",
        "Name[ko]": "K3b Ogg 보비스 인코더",
        "Name[lt]": "K3b Ogg Vorbis koduotuvas",
        "Name[lv]": "K3b Ogg Vorbis kodētājs",
        "Name[mr]": "के3बी Ogg Vorbis एन्कोडर",
        "Name[nb]": "K3b Ogg Vorbis-koder",
        "Name[nds]": "Ogg-Vorbis-Koderer för K3b",
        "Name[nl]": "K3b Ogg Vorbis-codeerder",
        "Name[nn]": "Ogg Vorbis-kodar for K3b",
        "Name[pa]": "K3b Ogg Vorbis ਇੰਕੋਡਰ",
        "Name[pl]": "Koder Ogg Vorbis dla K3b",
        "Name[pt]": "Codificador de Ogg Vorbis do K3b",
        "Name[pt_BR]": "Codificador Ogg Vorbis do K3b",
        "Name[ro]": "Codor K3b Ogg Vorbis",
        "Name[ru]": "Кодер Ogg Vorbis",
        "Name[sk]": "Ogg Vorbis enkodér pre K3b",
        "Name[sl]": "K3b-jev kodirnik Ogg Vorbis",
        "Name[sq]": "K3b Ogg Vorbis Enkoder",
        "Name[sr@ijekavian]": "ОГГ ворбис кодер за К3б",
        "Name[sr@ijekavianlatin]": "OGG Vorbis koder za K3b",
        "Name[sr@latin]": "OGG Vorbis koder za K3b",
        "Name[sr]": "ОГГ ворбис кодер за К3б",
        "Name[sv]": "K3b Ogg Vorbis-kodare",
        "Name[th]": "K3b - ตัวเข้ารหัส Ogg Vorbis",
        "Name[tr]": "K3b Ogg Vorbis Kodlayıcısı",
        "Name[uk]": "Кодувальник Ogg Vorbis для K3b",
        "Name[x-test]": "xxK3b Ogg Vorbis Encoderxx",
        "Name[zh_CN]": "K3b Ogg Vorbis 编码器",
        "Name[zh_TW]": "K3b Ogg Vorbis 編碼器",
        "Version": "3.0"
    },
    "X-KDE-ConfigModule": "k3b_plugins/kcms/kcm_k3boggvorbisencoder"
}
