{
    "KPlugin": {
        "Authors": [
            {
                "Email": "trueg@k3b.org",
                "Name": "Sebastian Trueg",
                "Name[bg]": "Sebastian Trueg",
                "Name[ca@valencia]": "Sebastian Trueg",
                "Name[ca]": "Sebastian Trueg",
                "Name[cs]": "Sebastian Trueg",
                "Name[da]": "Sebastian Trueg",
                "Name[de]": "Sebastian Trueg",
                "Name[el]": "Sebastian Trueg",
                "Name[en_GB]": "Sebastian Trueg",
                "Name[es]": "Sebastian Trueg",
                "Name[eu]": "Sebastian Trueg",
                "Name[fi]": "Sebastian Trueg",
                "Name[fr]": "Sebastian Trueg",
                "Name[hu]": "Sebastian Trueg",
                "Name[ia]": "Sebastian Trueg",
                "Name[it]": "Sebastian Trueg",
                "Name[ko]": "Sebastian Trueg",
                "Name[nl]": "Sebastian Trueg",
                "Name[pl]": "Sebastian Trueg",
                "Name[pt]": "Sebastian Trueg",
                "Name[pt_BR]": "Sebastian Trueg",
                "Name[ru]": "Sebastian Trueg",
                "Name[sk]": "Sebastian Trueg",
                "Name[sl]": "Sebastian Trueg",
                "Name[sv]": "Sebastian Trueg",
                "Name[tr]": "Sebastian Trueg",
                "Name[uk]": "Sebastian Trueg",
                "Name[x-test]": "xxSebastian Truegxx",
                "Name[zh_CN]": "Sebastian Trueg"
            }
        ],
        "Category": "AudioDecoder",
        "Description": "Decoding module to decode Ogg Vorbis files",
        "Description[ar]": "وحدة فكّ ترميز لفكّ ترميز ملفّات Ogg Vorbis",
        "Description[bg]": "Декодер за файлове във формат Ogg Vorbis",
        "Description[bs]": "Modul za dekodiranje OGG vorbis datoteka",
        "Description[ca@valencia]": "Mòdul de descodificació per a descodificar fitxers Ogg Vorbis",
        "Description[ca]": "Mòdul de descodificació per a descodificar fitxers Ogg Vorbis",
        "Description[cs]": "Modul pro dekódování souborů Ogg Vorbis",
        "Description[csb]": "Mòdul dekòdërëjący lopczi Ogg Vorbis",
        "Description[da]": "Dekodermodul til dekodning af Ogg Vorbis-filer",
        "Description[de]": "Dekodierungsmodul für Ogg-Vorbis-Dateien",
        "Description[el]": "Άρθρωμα αποκωδικοποίησης αρχείων Ogg Vorbis",
        "Description[en_GB]": "Decoding module to decode Ogg Vorbis files",
        "Description[es]": "Descodificando módulo para descodificar archivos Ogg Vorbis",
        "Description[et]": "Ogg Vorbise failide dekodeerimise moodul",
        "Description[eu]": "Ogg Vorbis fitxategiak deskodetzeko modulua",
        "Description[fi]": "Ogg Vorbis -tiedostojen purkumoduuli",
        "Description[fr]": "Module de décodage pour des fichiers audio au format « Ogg Vorbis »",
        "Description[ga]": "Modúl díchódaithe a dhíchódaíonn comhaid Ogg Vorbis",
        "Description[gl]": "Módulo de descodificación de ficheiros de son Ogg Vorbis",
        "Description[he]": "מודול המפענח קבצי Ogg Vorbis",
        "Description[hne]": "ओग वार्बिस फाइल ल डिकोड करे बर डिकोडिंग माड्यूल",
        "Description[hr]": "Dekoderski modul za dekodiranje Ogg Vorbis datoteka",
        "Description[hu]": "Dekódolómodul Ogg Vorbis-fájlok dekódolásához",
        "Description[ia]": "Modulo decifrante per decifrar files Ogg Vorbis",
        "Description[id]": "Modul decoding untuk mendekode file-file Ogg Vorbis",
        "Description[it]": "Decodifica modulare per i file Ogg Vorbis",
        "Description[ja]": "Ogg Vorbis ファイルをデコードするモジュール",
        "Description[kk]": "Ogg Vorbis файлдарының декодер модулі",
        "Description[km]": "ម៉ូឌុល​ឌិកូដ សម្រាប់​​ឌិកូដ​ឯកសារ Ogg Vorbis",
        "Description[ko]": "Ogg 보비스 파일 디코딩 모듈",
        "Description[lt]": "Dekodavimo modulis dekoduoti Ogg Vorbis failus",
        "Description[lv]": "Dekodēšanas modulis Ogg Vorbis failiem",
        "Description[mr]": "Ogg Vorbis फाईल्स डीकोड करण्याकरिता डीकोडिंग विभाग",
        "Description[nb]": "Modul som dekoder Ogg Vorbis-filer",
        "Description[nds]": "Dekodeermoduul för \"Ogg-Vorbis\"-Dateien",
        "Description[nl]": "Module voor het decoderen van Ogg Vorbis-bestanden",
        "Description[nn]": "Modul for dekoding av Ogg Vorbis-filer",
        "Description[pl]": "Moduł dekodujący pliki Ogg Vorbis",
        "Description[pt]": "Módulo de descodificação de ficheiros Ogg Vorbis",
        "Description[pt_BR]": "Módulo de decodificação de arquivos Ogg Vorbis",
        "Description[ro]": "Modul de decodare pentru decodarea fișierelor Ogg Vorbis",
        "Description[ru]": "Модуль декодирования файлов Ogg Vorbis",
        "Description[sk]": "Modul pre dekódovanie súborov Ogg Vorbis",
        "Description[sl]": "Dekodirni modul za dekodiranje datotek Ogg Vorbis",
        "Description[sr@ijekavian]": "Модул за декодирање ОГГ ворбис фајлова",
        "Description[sr@ijekavianlatin]": "Modul za dekodiranje OGG Vorbis fajlova",
        "Description[sr@latin]": "Modul za dekodiranje OGG Vorbis fajlova",
        "Description[sr]": "Модул за декодирање ОГГ ворбис фајлова",
        "Description[sv]": "Avkodningsmodul för att avkoda Ogg Vorbis-filer",
        "Description[th]": "มอดูลถอดรหัสแฟ้มประเภท Ogg Vorbis",
        "Description[tr]": "Ogg Vorbis dosyalarının kodlarını çözmek için kod çözme modülü",
        "Description[uk]": "Модуль декодування файлів Ogg Vorbis",
        "Description[x-test]": "xxDecoding module to decode Ogg Vorbis filesxx",
        "Description[zh_CN]": "用于解码 Ogg Vorbis 文件的解码模块",
        "Description[zh_TW]": "解碼 Ogg Vorbis 檔案格式的模組",
        "EnabledByDefault": true,
        "Icon": "preferences-plugin",
        "Id": "oggvorbisdecoder",
        "License": "GPL",
        "Name": "K3b Ogg Vorbis Decoder",
        "Name[bg]": "Ogg Vorbis декодер за K3b",
        "Name[bs]": "OGG Vorbis dekoder za K3b",
        "Name[ca@valencia]": "Descodificador Ogg Vorbis de K3b",
        "Name[ca]": "Descodificador Ogg Vorbis del K3b",
        "Name[cs]": "Ogg Vorbis dekodér K3b",
        "Name[csb]": "Dekòder Ogg Vorbis dlô K3b",
        "Name[da]": "K3b Ogg Vorbis-dekoder",
        "Name[de]": "Ogg-Vorbis-Dekodierer",
        "Name[el]": "Αποκωδικοποιητής Ogg Vorbis του K3b",
        "Name[en_GB]": "K3b Ogg Vorbis Decoder",
        "Name[es]": "Descodificador Ogg Vorbis de K3b",
        "Name[et]": "K3b Ogg Vorbise dekodeerija",
        "Name[eu]": "K3b Ogg Vorbis deskodetzailea",
        "Name[fi]": "K3b:n Ogg Vorbis -purkaja",
        "Name[fr]": "Décodeur « Ogg Vorbis » pour K3b",
        "Name[ga]": "Díchódóir Ogg Vorbis K3b",
        "Name[gl]": "Descodificador de Ogg Vorbis para K3b",
        "Name[he]": "מפענח Ogg Vorbis של K3b",
        "Name[hne]": "के3बी ओग वार्बिस डिकोडर",
        "Name[hr]": "K3b-ov dekoder Ogg Vorbisa",
        "Name[hu]": "Ogg Vorbis-dekódoló a K3b-hez",
        "Name[ia]": "Decifrator Ogg Vorbis de K3b",
        "Name[id]": "Dekoder Ogg Vorbis K3b",
        "Name[is]": "K3b Ogg Vorbis afkóðari",
        "Name[it]": "Decodificatore Ogg Vorbis di K3b",
        "Name[ja]": "K3b Ogg Vorbis デコーダ",
        "Name[kk]": "K3b Ogg Vorbis декодері",
        "Name[km]": "ឌិកូឌ័រ​ Ogg Vorbis របស់ K3b",
        "Name[ko]": "K3b Ogg 보비스 디코더",
        "Name[lt]": "K3b Ogg Vorbis dekoderis",
        "Name[lv]": "K3b Ogg Vorbis dekoderis",
        "Name[mr]": "के3बी Ogg Vorbis डीकोडर",
        "Name[nb]": "K3b Ogg Vorbis-dekoder",
        "Name[nds]": "Ogg-Vorbis-Dekoderer för K3b",
        "Name[nl]": "K3b Ogg Vorbis-decoder",
        "Name[nn]": "Ogg Vorbis-dekodar for K3b",
        "Name[pa]": "K3b Ogg Vorbis ਡੀਕੋਡਰ",
        "Name[pl]": "Dekoder Ogg Vorbis dla K3b",
        "Name[pt]": "Descodificador de Ogg Vorbis do K3b",
        "Name[pt_BR]": "Decodificador Ogg Vorbis do K3b",
        "Name[ro]": "Decodor K3b Ogg Vorbis",
        "Name[ru]": "Декодер Ogg Vorbis",
        "Name[sk]": "Ogg Vorbis dekodér pre K3b",
        "Name[sl]": "K3b-jev dekodirnik Ogg Vorbis",
        "Name[sq]": "K3b Ogg Vorbis Dekoder",
        "Name[sr@ijekavian]": "ОГГ ворбис декодер за К3б",
        "Name[sr@ijekavianlatin]": "OGG Vorbis dekoder za K3b",
        "Name[sr@latin]": "OGG Vorbis dekoder za K3b",
        "Name[sr]": "ОГГ ворбис декодер за К3б",
        "Name[sv]": "K3b Ogg Vorbis-avkodare",
        "Name[th]": "K3b - ตัวถอดรหัส Ogg Vorbis",
        "Name[tr]": "K3b Ogg Vorbis Çözücü",
        "Name[uk]": "Декодер Ogg Vorbis для K3b",
        "Name[x-test]": "xxK3b Ogg Vorbis Decoderxx",
        "Name[zh_CN]": "K3b Ogg Vorbis 解码器",
        "Name[zh_TW]": "K3b Ogg Vorbis 解碼器",
        "Version": "4.0"
    }
}
